%YAML 1.1
%TAG !u! tag:unity3d.com,2011:
--- !u!114 &11400000
MonoBehaviour:
  m_ObjectHideFlags: 0
  m_CorrespondingSourceObject: {fileID: 0}
  m_PrefabInternal: {fileID: 0}
  m_GameObject: {fileID: 0}
  m_Enabled: 1
  m_EditorHideFlags: 0
  m_Script: {fileID: 11500000, guid: ca6905ac1e95ca842b526e3770a97d38, type: 3}
  m_Name: book1
  m_EditorClassIdentifier: 
  text:
  - Ola uwielbia spacery w parku.
  - "Ania kocha wycieczki w g\xF3ry."
  - "Adam uwielbia, gdy pada \u015Bnieg."
  - 
  image:
  - {fileID: 21300000, guid: 5e6f8ece0cf064a40be5b174f6f37fad, type: 3}
  - {fileID: 21300000, guid: 7e69bd47291893c45a3ce41050d2aa49, type: 3}
  - {fileID: 21300000, guid: 0fa6d019cc4e9d6449eb268f746e4a73, type: 3}
  - {fileID: 0}
  pageAudioCLip:
  - {fileID: 8300000, guid: 9c4f198631b92dc4ca3913f675ec27ca, type: 3}
  - {fileID: 8300000, guid: 9c4f198631b92dc4ca3913f675ec27ca, type: 3}
  - {fileID: 8300000, guid: 9c4f198631b92dc4ca3913f675ec27ca, type: 3}
  - {fileID: 8300000, guid: 9c4f198631b92dc4ca3913f675ec27ca, type: 3}
  txt_author: "Mateusz Wili\u0144ski"
  title: Szlakiem natury
