%YAML 1.1
%TAG !u! tag:unity3d.com,2011:
--- !u!114 &11400000
MonoBehaviour:
  m_ObjectHideFlags: 0
  m_CorrespondingSourceObject: {fileID: 0}
  m_PrefabInternal: {fileID: 0}
  m_GameObject: {fileID: 0}
  m_Enabled: 1
  m_EditorHideFlags: 0
  m_Script: {fileID: 11500000, guid: 3b0f3c7e45678434fa1333f1ea545e70, type: 3}
  m_Name: New Book Page 2
  m_EditorClassIdentifier: 
  text: "Adam uwielbia, gdy pada \u015Bnieg."
  image: {fileID: 21300000, guid: 0fa6d019cc4e9d6449eb268f746e4a73, type: 3}
  pageAudioCLip: {fileID: 8300000, guid: 9c4f198631b92dc4ca3913f675ec27ca, type: 3}
